Exercício Capítulo 2
…
Censura intervalar.

Em que situação ocorreria truncamento?

Truncamento a esquerda ocorreria no caso de pacientes positivarem no teste inicial, pois eles teriam positivado fora da janela temporal do estudo. Truncamento a direita ocorreria se o estudo analisasse apenas os casos de pacientes que positivaram durante a janela temporal.

Exercício 2.7

Para se familiarizar com o R e com o banco de dados do Ipec (ipec.csv, veja o Apêndice, seção Aids - clássico) que será utilizado nos próximos capítulos, inicie a análise de sobrevivência observando os dados dos pacientes:

No formato clássico.

(ipec <- read_csv2("ipec.csv"))

## # A tibble: 193 x 15
##       id   ini   fim tempo status sexo  escola idade risco acompan obito anotrat
##    <dbl> <dbl> <dbl> <dbl>  <dbl> <chr>  <dbl> <dbl> <dbl>   <dbl> <chr>   <dbl>
##  1     1  1243  2095   852      1 M          3    34     0       1 S        1991
##  2     2  2800  2923   123      1 M          2    38     6       1 S           9
##  3     3  1250  2395  1145      1 M         NA    32     0       1 S        1992
##  4     4  1915  4670  2755      0 M         NA    43     6       0 N        1992
##  5     5  2653  4770  2117      0 M         NA    40     0       1 N        1992
##  6     6     3   332   329      0 M         NA    34     0       1 I           9
##  7     7    36    96    60      1 M         NA    27     0       2 S           9
##  8     8     1   152   151      1 M          0    22     6       2 S           9
##  9     9   544  2107  1563      1 M          2    44    NA       0 S           9
## 10    10    71  1318  1247      1 M          2    23     0       2 S           9
## # ... with 183 more rows, and 3 more variables: tratam <dbl>, doenca <dbl>,
## #   propcp <dbl>
…
